module github.com/jcowgar/advent-of-code/go

go 1.18

require (
	github.com/spf13/cobra v1.4.0 // direct
	github.com/stretchr/testify v1.8.0
)

require github.com/deckarep/golang-set/v2 v2.1.0

require (
	github.com/davecgh/go-spew v1.1.1 // indirect
	github.com/inconshreveable/mousetrap v1.0.0 // indirect
	github.com/pmezard/go-difflib v1.0.0 // indirect
	github.com/spf13/pflag v1.0.5 // indirect
	gopkg.in/yaml.v3 v3.0.1 // indirect
)
